This is BibTeX, Version 0.99d (TeX Live 2016)
Capacity: max_strings=100000, hash_size=100000, hash_prime=85009
The top-level auxiliary file: tutorial.aux
The style file: ufsc-alf.bst
Reallocated singl_function (elt_size=4) to 100 items from 50.
Reallocated singl_function (elt_size=4) to 100 items from 50.
Reallocated singl_function (elt_size=4) to 100 items from 50.
Reallocated singl_function (elt_size=4) to 100 items from 50.
Reallocated wiz_functions (elt_size=4) to 6000 items from 3000.
Reallocated singl_function (elt_size=4) to 100 items from 50.
Reallocated singl_function (elt_size=4) to 100 items from 50.
Reallocated singl_function (elt_size=4) to 100 items from 50.
Database file #1: abnt-options.bib
Database file #2: bibliografia.bib
Warning--entry type for "ABCM04" isn't style-file defined
--line 4 of file bibliografia.bib
Warning--entry type for "MLA04" isn't style-file defined
--line 58 of file bibliografia.bib
Warning--entry type for "Rocha-2010-Teste" isn't style-file defined
--line 68 of file bibliografia.bib
Warning--I didn't find a database entry for "abnt-year-extra-label=yes"
Warning--I didn't find a database entry for "abnt-url-package=html"
Reallocated wiz_functions (elt_size=4) to 9000 items from 6000.
Reallocated singl_function (elt_size=4) to 100 items from 50.
Reallocated glb_str_ptr (elt_size=4) to 20 items from 10.
Reallocated global_strs (elt_size=20001) to 20 items from 10.
Reallocated glb_str_end (elt_size=4) to 20 items from 10.
+---------------------------------------------------------+
| Estilo bibliográfico abnt-alf.bst versăo 1.45.2.1           |
| Em caso de dúvidas ou problemas com este estilo procure |
| http://abntex.codigolivre.org.br                        |
+---------------------------------------------------------+
You've used 11 entries,
            6480 wiz_defined-function locations,
            1231 strings with 10549 characters,
and the built_in function-call counts, 8214 in all, are:
= -- 738
> -- 233
< -- 13
+ -- 131
- -- 72
* -- 547
:= -- 1163
add.period$ -- 42
call.type$ -- 12
change.case$ -- 87
chr.to.int$ -- 23
cite$ -- 10
duplicate$ -- 361
empty$ -- 671
format.name$ -- 339
if$ -- 1970
int.to.chr$ -- 0
int.to.str$ -- 0
missing$ -- 179
newline$ -- 57
num.names$ -- 50
pop$ -- 230
preamble$ -- 1
purify$ -- 38
quote$ -- 0
skip$ -- 510
stack$ -- 1
substring$ -- 315
swap$ -- 171
text.length$ -- 9
text.prefix$ -- 0
top$ -- 0
type$ -- 4
warning$ -- 0
while$ -- 71
width$ -- 0
write$ -- 166
(There were 5 warnings)
