\select@language {brazil}
\contentsline {chapter}{\numberline {1}\MakeUppercase {Introdu\IeC {\c c}\IeC {\u a}o}}{27}
\contentsline {section}{\numberline {1.1}Teste2}{27}
\contentsline {subsection}{\numberline {1.1.1}Teste3}{27}
\contentsline {subsubsection}{\numberline {1.1.1.1}Teste4}{27}
\contentsline {paragraph}{\numberline {1.1.1.1.1}Teste5}{27}
\contentsline {paragraph}{\numberline {1.1.1.1.2}Teste6}{28}
\contentsline {chapter}{\numberline {2}\MakeUppercase {Formato do Texto}}{29}
\contentsline {section}{\numberline {2.1}T\IeC {\'\i }tulos e Subt\IeC {\'\i }tulos das Se\IeC {\c c}\IeC {\H o}es - Isso pode feder de uma forma nunca vista, se tu n\IeC {\u a}o prestares aten\IeC {\c c}\IeC {\u a}o}{29}
\contentsline {section}{\numberline {2.2}Corpo do Texto}{29}
\contentsline {chapter}{\numberline {3}\MakeUppercase {Agradecimentos}}{33}
\contentsline {chapter}{\numberline {4}\MakeUppercase {Direitos Autorais}}{35}
\contentsline {chapter}{REFER\IeC {\k E}NCIAS}{37}
\contentsline {chapter}{\MakeUppercase {Ap\^endice{}} A{} -$\mskip -\thinmuskip $-{} Teste Ap\IeC {\k e}ndice}{41}
\contentsline {chapter}{\MakeUppercase {ANEXO{}} A{} -$\mskip -\thinmuskip $-{} Teste Anexo}{45}
