\relax 
\catcode `"\active 
\citation{abnt-and-type=e}
\citation{abnt-year-extra-label=yes}
\citation{abnt-url-package=html}
\select@language{brazil}
\@writefile{toc}{\select@language{brazil}}
\@writefile{lof}{\select@language{brazil}}
\@writefile{lot}{\select@language{brazil}}
\@writefile{toc}{\contentsline {chapter}{\numberline {1}\MakeUppercase  {Introdu\IeC {\c c}\IeC {\u a}o}}{27}}
\@writefile{toc}{\contentsline {section}{\numberline {1.1}Teste2}{27}}
\@writefile{toc}{\contentsline {subsection}{\numberline {1.1.1}Teste3}{27}}
\@writefile{toc}{\contentsline {subsubsection}{\numberline {1.1.1.1}Teste4}{27}}
\@writefile{toc}{\contentsline {paragraph}{\numberline {1.1.1.1.1}Teste5}{27}}
\@writefile{toc}{\contentsline {paragraph}{\numberline {1.1.1.1.2}Teste6}{28}}
\@writefile{toc}{\contentsline {chapter}{\numberline {2}\MakeUppercase  {Formato do Texto}}{29}}
\@writefile{toc}{\contentsline {section}{\numberline {2.1}T\IeC {\'\i }tulos e Subt\IeC {\'\i }tulos das Se\IeC {\c c}\IeC {\H o}es - Isso pode feder de uma forma nunca vista, se tu n\IeC {\u a}o prestares aten\IeC {\c c}\IeC {\u a}o}{29}}
\@writefile{toc}{\contentsline {section}{\numberline {2.2}Corpo do Texto}{29}}
\citation{Bordalo02}
\citation{Coimbra84}
\citation{Clark86}
\citation{Sparrow80}
\@writefile{las}{\contentsline {sig}{\hbox to\@tempdima {SI\hfil }{Sistema Internacional de unidades}}{30}}
\@writefile{lsb}{\contentsline {simb}{\hbox to\@tempdima {x,y\hfil }{Coordenadas do plano cartesiano}}{30}}
\@writefile{lsb}{\contentsline {simb}{\hbox to\@tempdima {T\hfil }{Tens\IeC {\u a}o}}{30}}
\@writefile{lot}{\contentsline {table}{\numberline {1}{\ignorespaces Exemplo de tabela\relax }}{30}}
\citation{Soviero97}
\citation{Lee03}
\citation{ABCM04}
\citation{MLA04}
\citation{Autor04}
\citation{Rocha-2010-Teste}
\@writefile{lof}{\contentsline {figure}{\numberline {1}{\ignorespaces Exemplo de figura com legenda bem grande para ver o problema que pode ocorrer nas indenta\IeC {\c c}\IeC {\H o}es. Espero que seja o suficiente.\relax }}{31}}
\providecommand*\caption@xref[2]{\@setref\relax\@undefined{#1}}
\newlabel{sampleFig}{{1}{31}}
\@writefile{las}{\contentsline {sig}{\hbox to\@tempdima {GNU\hfil }{Gnu is Not Unix}}{31}}
\@writefile{toc}{\contentsline {chapter}{\numberline {3}\MakeUppercase  {Agradecimentos}}{33}}
\bibstyle{ufsc-alf}
\bibdata{abnt-options,bibliografia}
\@writefile{toc}{\contentsline {chapter}{\numberline {4}\MakeUppercase  {Direitos Autorais}}{35}}
\bibcite{ABCM04}{ABCM 2004}
\bibcite{ABCM04++EXPL}{ABCM}
\bibcite{ABCM04++IMPL}{ABCM}
\bibcite{ABCM04++YEAR}{2004}
\bibcite{Autor04}{Autor1 et al. 1999}
\bibcite{Autor04++EXPL}{Autor1 et al.}
\bibcite{Autor04++IMPL}{AUTOR1 et al.}
\bibcite{Autor04++YEAR}{1999}
\bibcite{Bordalo02}{Bordalo, Ferziger e Kline 1999}
\bibcite{Bordalo02++EXPL}{Bordalo, Ferziger e Kline}
\bibcite{Bordalo02++IMPL}{BORDALO; FERZIGER; KLINE}
\bibcite{Bordalo02++YEAR}{1999}
\bibcite{Clark86}{Clark 1986}
\bibcite{Clark86++EXPL}{Clark}
\bibcite{Clark86++IMPL}{CLARK}
\bibcite{Clark86++YEAR}{1986}
\bibcite{Coimbra84}{Coimbra 1984}
\bibcite{Coimbra84++EXPL}{Coimbra}
\bibcite{Coimbra84++IMPL}{COIMBRA}
\bibcite{Coimbra84++YEAR}{1984}
\bibcite{Lee03}{Lee 2003}
\bibcite{Lee03++EXPL}{Lee}
\bibcite{Lee03++IMPL}{LEE}
\bibcite{Lee03++YEAR}{2003}
\bibcite{MLA04}{MLA 2004}
\bibcite{MLA04++EXPL}{MLA}
\bibcite{MLA04++IMPL}{MLA}
\bibcite{MLA04++YEAR}{2004}
\bibcite{Rocha-2010-Teste}{Rocha 2010}
\bibcite{Rocha-2010-Teste++EXPL}{Rocha}
\bibcite{Rocha-2010-Teste++IMPL}{ROCHA}
\bibcite{Rocha-2010-Teste++YEAR}{2010}
\bibcite{Soviero97}{Soviero e Lavagna 1997}
\bibcite{Soviero97++EXPL}{Soviero e Lavagna}
\bibcite{Soviero97++IMPL}{SOVIERO; LAVAGNA}
\bibcite{Soviero97++YEAR}{1997}
\bibcite{Sparrow80}{Sparrow 1980}
\bibcite{Sparrow80++EXPL}{Sparrow}
\bibcite{Sparrow80++IMPL}{SPARROW}
\bibcite{Sparrow80++YEAR}{1980}
\@writefile{toc}{\contentsline {chapter}{REFER\IeC {\k E}NCIAS}{37}}
\@writefile{toc}{\contentsline {chapter}{\MakeUppercase  {Ap\^endice{}} A{} -$\mskip -\thinmuskip $-{} Teste Ap\IeC {\k e}ndice}{41}}
\@writefile{toc}{\contentsline {chapter}{\MakeUppercase  {ANEXO{}} A{} -$\mskip -\thinmuskip $-{} Teste Anexo}{45}}
